{
    "name": "Buku",
    "alias": "buku",
    "description": "",
    "keywords": [],
    "priority": 0,
    "providers": [
        "Modules\\Buku\\Providers\\BukuServiceProvider"
    ],
    "aliases": {},
    "files": [],
    "requires": []
}
